Exploring the BRFSS data
…
When i was a kid i always wanted to be really tall. I thought what would the other benefits of being really tall be. Hence this question.

Part 3: Exploratory data analysis

Research quesion 1:

First lets see out of all the people how many number of days are they the most mentally distrubed or the number of days their mental health is not good.

brfss2013 %>%
  group_by(menthlth) %>%
  summarise(count=n()) %>%
  arrange(desc(count))

## # A tibble: 34 x 2
##    menthlth  count
##       <int>  <int>
##  1        0 334461
##  2       30  25521
##  3        2  23520
##  4        5  16654
##  5        1  15206
##  6        3  13593
##  7       10  11917
##  8       15  10910
##  9       NA   8627
## 10        4   6660
## # ... with 24 more rows

As we can see here that almost 68% of people have 0 mentally disturbing days. Although coming in second is the maximum number of days i.e.30 days. Lets have a look at the number of hours slept by both the category of people.

brfss2013_menthlth_0 <- brfss2013 %>%
  filter(menthlth!="NA",sleptim1!="NA",menthlth==0) %>%
  group_by(sleptim1) %>%
  summarise(menthlth_0_count=n()) %>%
  arrange(desc(menthlth_0_count))

This is the table for all the people who have 0 days in a month that are mentally disturbing.

brfss2013_menthlth_0

## # A tibble: 23 x 2
##    sleptim1 menthlth_0_count
##       <int>            <int>
##  1        8           106042
##  2        7           102693
##  3        6            67281
##  4        5            18022
##  5        9            17081
##  6       10             7716
##  7        4             6103
##  8       12             2009
##  9        3             1271
## 10       11              462
## # ... with 13 more rows
…
We can see that this distribution follows a normal curve. Most people tend to sleep for 7 hours but coming in close at 8 we can see a sharp cut in the curve. This could be due to people rounding up the number of hours they sleep to 8.

Lets look at the same details for people who had the most number of days where their mental health was not good.

brfss2013_menthlth_30 <- brfss2013 %>%
  filter(menthlth!="NA",sleptim1!="NA",menthlth==30) %>%
  group_by(sleptim1) %>%
  summarise(menthlth_30_count=n()) %>%
  arrange(desc(menthlth_30_count))

brfss2013_menthlth_30

## # A tibble: 23 x 2
##    sleptim1 menthlth_30_count
##       <int>             <int>
##  1        6              6148
##  2        8              4417
##  3        7              3587
##  4        5              3543
##  5        4              2870
##  6       10               966
##  7        9               946
##  8        3               905
##  9       12               528
## 10        2               318
## # ... with 13 more rows
…
